{
  "informacion-basica": [
    {
      "id": 71364175,
      "documento": "71364175",
      "nombre": "Cristian Camilo",
      "apellido": "Muñoz Paniagua",
      "tipo_documento": {
        "label": "Cédula de Ciudadanía",
        "value": "C"
      },
      "lugar_nacimiento": {
        "label": "Medellín",
        "value": "1"
      },
      "fecha_nacimiento": "1985-10-20T00:00:00.000Z",
      "edad": 36,
      "foto": "Assets/img/foto.png",
      "direccion_residencia": "Cl 48DD N 99B155",
      "telefono": "4927312"
    },
    {
      "id": 71364174,
      "documento": "71364174",
      "nombre": "Alex Uriel",
      "apellido": "Muñoz Paniagua",
      "tipo_documento": {
        "label": "Cédula de Ciudadanía",
        "value": "C"
      },
      "lugar_nacimiento": {
        "label": "Cali",
        "value": "3"
      },
      "fecha_nacimiento": "1983-02-10",
      "edad": 36,
      "foto": "Assets/img/foto.png",
      "direccion_residencia": "Cl 48DD N 99B155",
      "telefono": "4927312"
    },
    {
      "id": 71364176,
      "tipo_documento": {
        "label": "Tarjeta de identidad",
        "value": "T"
      },
      "documento": "3124314",
      "nombre": "Ana Maria",
      "apellido": "Lopers",
      "lugar_nacimiento": {
        "label": "Medellín",
        "value": "1"
      },
      "fecha_nacimiento": "2019-09-03",
      "edad": "23"
    },
    {
      "id": 71364179,
      "tipo_documento": {
        "label": "Registro civil",
        "value": "R"
      },
      "documento": "1022158604",
      "nombre": "Maximiliano",
      "apellido": "Muñoz Gómez",
      "lugar_nacimiento": {
        "label": "Medellín",
        "value": "1"
      },
      "fecha_nacimiento": "2014-12-29",
      "edad": "4"
    },
    {
      "id": 71364180,
      "tipo_documento": {
        "label": "Cédula de Ciudadanía",
        "value": "C"
      },
      "documento": "53235235234",
      "nombre": "Juana",
      "apellido": "Dearco",
      "lugar_nacimiento": {
        "label": "Bogotá",
        "value": "2"
      },
      "fecha_nacimiento": "1983-02-10T05:00:00.000Z",
      "edad": "56"
    },
    {
      "id": 71364181,
      "tipo_documento": {
        "label": "Cédula de Ciudadanía",
        "value": "C"
      },
      "documento": "957865876587",
      "nombre": "Juan Carlos",
      "apellido": "Londoño",
      "lugar_nacimiento": {
        "label": "Medellín",
        "value": "1"
      },
      "fecha_nacimiento": "1985-09-12T05:00:00.000Z",
      "edad": 34
    },
    {
      "id": 71364182,
      "tipo_documento": {
        "label": "Cédula de Ciudadanía",
        "value": "C"
      },
      "documento": "123415321315",
      "nombre": "Esperanza",
      "apellido": "Gómez",
      "lugar_nacimiento": {
        "label": "Bogotá",
        "value": "2"
      },
      "fecha_nacimiento": "2001-06-12T05:00:00.000Z",
      "edad": 18
    }
  ],
  "contactos": [
    {
      "id": 1,
      "direccionResidencia": "Cl 45DD # 88-45",
      "telefono": 123423434
    },
    {
      "id": 2,
      "direccionResidencia": "Cl 47DD # 88-46",
      "telefono": 134545434
    },
    {
      "id": 3,
      "direccionResidencia": "Cl 49DD # 88-48",
      "telefono": 43345434
    },
    {
      "direccionResidencia": "124234dfasdfasdf - #34123413sdfasdfad",
      "telefono": "12341234134",
      "id": 4
    },
    {
      "direccionResidencia": "124234dfasdfasdf - #34123413sdfasdfad",
      "telefono": "143123412341234",
      "id": 5
    },
    {
      "direccionResidencia": "148DD - #99B",
      "telefono": "234235453",
      "id": 6
    }
  ],
  "referencias": [
    {
      "documento": 23534546334,
      "nombre": "Andres López",
      "telefono": 4212344
    },
    {
      "documento": 23563224534,
      "nombre": "Andrea Vanegas",
      "telefono": 4243444
    }
  ],
  "ubicacion": [
    {
      "label": "Seleccione Ciudad",
      "value": null
    },
    {
      "label": "Medellín",
      "value": "1"
    },
    {
      "label": "Bogotá",
      "value": "2"
    },
    {
      "label": "Cali",
      "value": "3"
    }
  ],
  "tipoDocumento": [
    {
      "label": "Seleccione tipo documento",
      "value": null
    },
    {
      "label": "Tarjeta de identidad",
      "value": "T"
    },
    {
      "label": "Cédula de Ciudadanía",
      "value": "C"
    },
    {
      "label": "Registro civil",
      "value": "R"
    },
    {
      "label": "Pasaporte",
      "value": "P"
    },
    {
      "label": "Cédula de extranjería",
      "value": "E"
    }
  ]
}